{
  "sneakers": [
    {
      "id": 1,
      "name": "ASICS GEL-NYC",
      "price": 140.00,
      "imgUrl": "good-1.jpeg",
      "article": "92497698",
      "color": "Oatmeal/Obsidian Grey"
    },
    {
      "id": 2,
      "name": "ASICS GEL-VENTURE 6",
      "price": 100.00,
      "imgUrl": "good-2.jpeg",
      "article": "89054290",
      "color": "Birch/French Blue"
    },
    {
      "id": 3,
      "name": "ASICS GEL-QUANTUM 360 VII KISO",
      "price": 185.00,
      "imgUrl": "good-3.jpeg",
      "article": "123456789",
      "color": " Black/Black"
    },
    {
      "id": 4,
      "name": "ASICS GEL-SONOMA 15-50 FUTURE TRAIL",
      "price": 145.00,
      "imgUrl": "good-4.jpeg",
      "article": "234567891",
      "color": "Cream/Oatmeal"
    },
    {
      "id": 5,
      "name": "ASICS GEL-1130",
      "price": 125.00,
      "imgUrl": "good-5.jpeg",
      "article": "345678912",
      "color": "White/Cream"
    },
    {
      "id": 6,
      "name": "ASICS GEL-QUANTUM 360 VII",
      "price": 170.00,
      "imgUrl": "good-6.jpeg",
      "article": "456789123",
      "color": "Black/Habanero"
    },
    {
      "id": 7,
      "name": "ASICS GEL-TRABUCCO TERRA",
      "price": 125.00,
      "imgUrl": "good-7.jpeg",
      "article": "567891234",
      "color": "Sand/Cream"
    },
    {
      "id": 8,
      "name": "ASICS GEL-1130",
      "price": 125.00,
      "imgUrl": "good-8.jpeg",
      "article": "897589423",
      "color": "Black/Dark Grey"
    },
    {
      "id": 9,
      "name": "ASICS GEL-1130",
      "price": 115.00,
      "imgUrl": "good-9.jpeg",
      "article": "908189624",
      "color": "Feather Grey/Oyster Grey"
    },
    {
      "id": 10,
      "name": "ASICS GEL-QUANTUM 180 VII",
      "price": 145.00,
      "imgUrl": "good-10.jpeg",
      "article": "849390330",
      "color": "Black/Neon Lime"
    }
  ]
}
